{
  "uuid": "47be9b18-dcc5-4425-aed1-efb5a18e5d1f",
  "lastMigration": 27,
  "name": "MackoonMockedAPIs",
  "endpointPrefix": "",
  "latency": 0,
  "port": 3000,
  "hostname": "",
  "folders": [],
  "routes": [
    {
      "uuid": "dbe7f4ab-e5b7-49ff-8606-8ed6417d5c87",
      "type": "http",
      "documentation": "Get single user details",
      "method": "get",
      "endpoint": "api/users/2222",
      "responses": [
        {
          "uuid": "6135d50d-1bd7-4e12-a185-0bb33a04ca4b",
          "body": "{\r\n    \"page\": 2,\r\n    \"per_page\": 6,\r\n    \"total\": 12,\r\n    \"total_pages\": 2,\r\n    \"data\": [\r\n        {\r\n            \"id\": 7,\r\n            \"email\": \"michael.lawson@reqres.in\",\r\n            \"first_name\": \"Michael\",\r\n            \"last_name\": \"Lawson\",\r\n            \"avatar\": \"https://reqres.in/img/faces/7-image.jpg\"\r\n        },\r\n        {\r\n            \"id\": 8,\r\n            \"email\": \"lindsay.ferguson@reqres.in\",\r\n            \"first_name\": \"Lindsay\",\r\n            \"last_name\": \"Ferguson\",\r\n            \"avatar\": \"https://reqres.in/img/faces/8-image.jpg\"\r\n        },\r\n        {\r\n            \"id\": 9,\r\n            \"email\": \"tobias.funke@reqres.in\",\r\n            \"first_name\": \"Tobias\",\r\n            \"last_name\": \"Funke\",\r\n            \"avatar\": \"https://reqres.in/img/faces/9-image.jpg\"\r\n        },\r\n        {\r\n            \"id\": 10,\r\n            \"email\": \"byron.fields@reqres.in\",\r\n            \"first_name\": \"Byron\",\r\n            \"last_name\": \"Fields\",\r\n            \"avatar\": \"https://reqres.in/img/faces/10-image.jpg\"\r\n        },\r\n        {\r\n            \"id\": 11,\r\n            \"email\": \"george.edwards@reqres.in\",\r\n            \"first_name\": \"George\",\r\n            \"last_name\": \"Edwards\",\r\n            \"avatar\": \"https://reqres.in/img/faces/11-image.jpg\"\r\n        },\r\n        {\r\n            \"id\": 12,\r\n            \"email\": \"rachel.howell@reqres.in\",\r\n            \"first_name\": \"Rachel\",\r\n            \"last_name\": \"Howell\",\r\n            \"avatar\": \"https://reqres.in/img/faces/12-image.jpg\"\r\n        }\r\n    ],\r\n    \"support\": {\r\n        \"url\": \"https://reqres.in/#support-heading\",\r\n        \"text\": \"To keep ReqRes free, contributions towards server costs are appreciated!\"\r\n    }\r\n}",
          "latency": 0,
          "statusCode": 200,
          "label": "",
          "headers": [
            {
              "key": "Content-Type",
              "value": "application/json"
            },
            {
              "key": "Accept",
              "value": "application/json"
            }
          ],
          "bodyType": "INLINE",
          "filePath": "",
          "databucketID": "",
          "sendFileAsBody": false,
          "rules": [],
          "rulesOperator": "OR",
          "disableTemplating": false,
          "fallbackTo404": false,
          "default": true
        }
      ],
      "enabled": true,
      "responseMode": null
    },
    {
      "uuid": "fa8b75b9-f950-4af3-9073-1f8e59cbb101",
      "type": "http",
      "documentation": "Create user",
      "method": "post",
      "endpoint": "api/users",
      "responses": [
        {
          "uuid": "3d38b496-cbf9-4ecb-ac63-76c7eaa699ca",
          "body": "{\r\n    \"name\": \"Roger\",\r\n    \"job\": \"Tester\",\r\n    \"id\": \"2222\",\r\n    \"createdAt\": \"{{dateFormat (faker 'date.recent') 'yyyy-MM-dd  HH:mm:ss.SSS'}}\"\r\n    \r\n}",
          "latency": 0,
          "statusCode": 201,
          "label": "",
          "headers": [
            {
              "key": "Content-Type",
              "value": "application/json"
            },
            {
              "key": "Accept",
              "value": "application/json"
            }
          ],
          "bodyType": "INLINE",
          "filePath": "",
          "databucketID": "",
          "sendFileAsBody": false,
          "rules": [],
          "rulesOperator": "OR",
          "disableTemplating": false,
          "fallbackTo404": false,
          "default": true
        }
      ],
      "enabled": true,
      "responseMode": null
    },
    {
      "uuid": "3ec55f97-316f-4793-ba2a-b23a7a1b7762",
      "type": "http",
      "documentation": "Get list of users",
      "method": "get",
      "endpoint": "api/users",
      "responses": [
        {
          "uuid": "6346bd19-2fcc-4a07-b1ae-6f791370900e",
          "body": "{\n  \"page\": 2,\n  \"per_page\": 6,\n  \"total\": 12,\n  \"total_pages\": 2,\n  \"data\": [\n    {\n      \"id\": 22222,\n      \"email\": \"michael.lawson@reqres.in\",\n      \"first_name\": \"Michael\",\n      \"last_name\": \"Lawson\",\n      \"avatar\": \"https://reqres.in/img/faces/7-image.jpg\"\n    },\n    {\n      \"id\": 2223,\n      \"email\": \"lindsay.ferguson@reqres.in\",\n      \"first_name\": \"Lindsay\",\n      \"last_name\": \"Ferguson\",\n      \"avatar\": \"https://reqres.in/img/faces/8-image.jpg\"\n    },\n    {\n      \"id\": 2224,\n      \"email\": \"tobias.funke@reqres.in\",\n      \"first_name\": \"Tobias\",\n      \"last_name\": \"Funke\",\n      \"avatar\": \"https://reqres.in/img/faces/9-image.jpg\"\n    },\n    {\n      \"id\": 10,\n      \"email\": \"byron.fields@reqres.in\",\n      \"first_name\": \"Byron\",\n      \"last_name\": \"Fields\",\n      \"avatar\": \"https://reqres.in/img/faces/10-image.jpg\"\n    },\n    {\n      \"id\": 11,\n      \"email\": \"george.edwards@reqres.in\",\n      \"first_name\": \"George\",\n      \"last_name\": \"Edwards\",\n      \"avatar\": \"https://reqres.in/img/faces/11-image.jpg\"\n    },\n    {\n      \"id\": 12,\n      \"email\": \"rachel.howell@reqres.in\",\n      \"first_name\": \"Rachel\",\n      \"last_name\": \"Howell\",\n      \"avatar\": \"https://reqres.in/img/faces/12-image.jpg\"\n    }\n  ],\n  \"support\": {\n    \"url\": \"https://reqres.in/#support-heading\",\n    \"text\": \"To keep ReqRes free, contributions towards server costs are appreciated!\"\n  }\n}",
          "latency": 0,
          "statusCode": 200,
          "label": "",
          "headers": [
            {
              "key": "Content-Type",
              "value": "application/json"
            },
            {
              "key": "Accept",
              "value": "application/json"
            }
          ],
          "bodyType": "INLINE",
          "filePath": "",
          "databucketID": "",
          "sendFileAsBody": false,
          "rules": [],
          "rulesOperator": "OR",
          "disableTemplating": false,
          "fallbackTo404": false,
          "default": true
        }
      ],
      "enabled": true,
      "responseMode": null
    }
  ],
  "rootChildren": [
    {
      "type": "route",
      "uuid": "dbe7f4ab-e5b7-49ff-8606-8ed6417d5c87"
    },
    {
      "type": "route",
      "uuid": "fa8b75b9-f950-4af3-9073-1f8e59cbb101"
    },
    {
      "type": "route",
      "uuid": "3ec55f97-316f-4793-ba2a-b23a7a1b7762"
    }
  ],
  "proxyMode": false,
  "proxyHost": "",
  "proxyRemovePrefix": false,
  "tlsOptions": {
    "enabled": false,
    "type": "CERT",
    "pfxPath": "",
    "certPath": "",
    "keyPath": "",
    "caPath": "",
    "passphrase": ""
  },
  "cors": true,
  "headers": [],
  "proxyReqHeaders": [
    {
      "key": "",
      "value": ""
    }
  ],
  "proxyResHeaders": [
    {
      "key": "",
      "value": ""
    }
  ],
  "data": []
}